[
	 "data/default.links.json"
	,"data/common.administratif.links.json"
	,"data/common.dev.links.json"
	,"data/public.js.links.json"
	,"data/team.js.links.json"
	,"data/public.integration.links.json.empty"
	,"data/team.integration.links.json.empty"
	,"data/public.system.links.json.empty"
	,"data/team.system.links.json.empty"
	,"data/public.ateam.links.json.empty"
	,"data/team.ateam.links.json.empty"
	,"data/public.thoteam.links.json.empty"
	,"data/team.thoteam.links.json.empty"
	,"data/public.ops.links.json.empty"
	,"data/team.ops.links.json"
	,"data/public.boss.links.json.empty"
	,"data/team.boss.links.json.empty"
	,"data/adblock.links.json"
	,"data/extensions.links.json.empty"
	,"data/random.links.json"
]
